<?xml version="1.0" encoding="UTF-8"?>
<svg width="512" height="512" version="1.1" viewBox="0 0 135.47 135.47" xmlns="http://www.w3.org/2000/svg">
 <g display="none">
  <rect x="3.5604e-6" y="3.5604e-6" width="135.47" height="135.47" fill="#00203c" stroke="#00203c" stroke-width="1.3229"/>
  <path d="m65.467 4.829c-6.2217 13.253-12.443 26.505-18.665 39.758-15.601 2.3869-31.202 4.7723-46.802 7.1603 11.292 11.561 22.573 23.134 33.861 34.699-2.6622 16.34-5.3234 32.68-7.9864 49.02 13.951-7.7211 27.909-15.43 41.862-23.146 13.954 7.7161 27.911 15.425 41.862 23.146-2.6638-16.34-5.3294-32.68-7.9939-49.02 11.288-11.566 22.569-23.138 33.861-34.699-15.601-2.388-31.201-4.7734-46.802-7.1603-6.9766-14.862-13.946-29.728-20.927-44.587-0.75666 1.6097-1.5133 3.2194-2.27 4.829z" fill="#b7d4d8" stroke-width="0"/>
  <path transform="matrix(3.8612 0 0 4.0599 12.857 15.515)" d="m14.212-2.4818 4.9855 10.102 11.148 1.6199-8.0667 7.8631 1.9043 11.103-9.9709-5.242-9.9709 5.242 1.9043-11.103-8.0667-7.8631 11.148-1.6199z" display="inline" fill="#00203c" stroke-width="0"/>
 </g>
 <g>
  <circle cx="67.733" cy="67.733" r="67.733" fill="#00203c" stroke-width="0"/>
 </g>
 <g display="none">
  <text transform="scale(1.0547 .94817)" x="6.6773367" y="123.43633" fill="#f6b312" font-family="'Contrail One'" font-size="146.58px" letter-spacing="0px" stroke-width=".12015" word-spacing="0px" style="font-variant-caps:normal;font-variant-east-asian:normal;font-variant-ligatures:normal;font-variant-numeric:normal;line-height:1.25" xml:space="preserve"><tspan x="6.6773367" y="123.43633" font-family="'Contrail One'" font-size="146.58px" stroke-width=".12015" style="font-variant-caps:normal;font-variant-east-asian:normal;font-variant-ligatures:normal;font-variant-numeric:normal">G</tspan></text>
  <text transform="scale(1.0547 .94817)" x="51.809963" y="63.704964" fill="#f6b312" font-family="'Contrail One'" font-size="21.696px" letter-spacing="0px" stroke-width=".12015" word-spacing="0px" style="font-variant-caps:normal;font-variant-east-asian:normal;font-variant-ligatures:normal;font-variant-numeric:normal;line-height:1.25" xml:space="preserve"><tspan x="51.809963" y="63.704964">EMINIZE</tspan></text>
  <g>
   <path d="m38.455 28.696 3.5038 9.0403 9.6806 0.53872-7.5151 6.126 2.4791 9.3733-8.1484-5.2543-8.1484 5.2543 2.4791-9.3733-7.5151-6.126 9.6806-0.53872z" fill="#fff" stroke="#00203c" stroke-width="1.3229"/>
   <path d="m102.79 80.06 3.1779 9.489 10.007 0.0901-8.0425 5.9546 3.0065 9.5446-8.1484-5.8088-8.1484 5.8088 3.0065-9.5446-8.0425-5.9546 10.007-0.0901z" fill="#fff" stroke="#00203c" stroke-width="1.3229"/>
   <text transform="scale(1.3631 .7336)" x="6.0643659" y="158.24028" fill="#f6b312" font-family="'Contrail One'" font-size="163.9px" letter-spacing="0px" stroke-width="2.289" word-spacing="0px" style="font-variant-caps:normal;font-variant-east-asian:normal;font-variant-ligatures:normal;font-variant-numeric:normal;line-height:1.25" xml:space="preserve"><tspan x="6.0643659" y="158.24028" font-family="'Contrail One'" font-size="163.9px" stroke-width="2.289" style="font-variant-caps:normal;font-variant-east-asian:normal;font-variant-ligatures:normal;font-variant-numeric:normal">G</tspan></text>
   <path d="m92.296 40.391 3.1779 9.489 10.007 0.0901-8.0425 5.9546 3.0065 9.5446-8.1484-5.8088-8.1484 5.8088 3.0065-9.5446-8.0425-5.9546 10.007-0.0901z" display="inline" fill="#fff" stroke="#00203c" stroke-width="1.3229"/>
  </g>
 </g>
 <g>
  <g transform="scale(1.3631 .7336)" fill="#f6b312" style="font-variant-caps:normal;font-variant-east-asian:normal;font-variant-ligatures:normal;font-variant-numeric:normal" aria-label="G">
   <path d="m74.17 52.84-13.445-1.3605q-7.2828 0-11.284 3.5213-4.2416 3.9215-6.2424 15.126-2.0008 11.124-3.8415 29.691-1.8407 18.487-1.8407 26.73 0 8.1631 2.641 11.604 2.641 3.3613 6.2424 3.3613 3.6814 0 5.9222-0.08l5.282-45.377q0.32012-1.7607 2.0808-1.9207l15.046-0.56021q2.1608 0.08003 2.1608 1.9207l-6.7225 60.023q-0.32012 1.7607-2.1608 2.0008-10.644 1.6006-25.93 1.6006-18.327 0-23.529-17.687-1.4405-4.8818-1.4405-9.6837t0.32012-11.364q0.96036-23.529 5.6021-48.818 3.1212-17.607 7.6829-24.729 4.8018-7.4428 11.524-10.404 8.4032-3.6814 18.007-3.6814 9.6036 0 12.805 0.56021 3.2012 0.48018 3.6014 0.56021 0.96036 0.32012 0.96036 2.0008l-1.7607 14.886q-0.32012 2.0808-1.6806 2.0808z" style="font-variant-caps:normal;font-variant-east-asian:normal;font-variant-ligatures:normal;font-variant-numeric:normal"/>
  </g>
  <path d="m92.296 40.391 3.1779 9.489 10.007 0.0901-8.0425 5.9546 3.0065 9.5446-8.1484-5.8088-8.1484 5.8088 3.0065-9.5446-8.0425-5.9546 10.007-0.0901z" fill="#fff" stroke="#00203c" stroke-width="1.3229"/>
 </g>
</svg>
